
Fi reps rezultati:

[==========] Running 8 tests from 8 test suites.
[----------] Global test environment set-up.
[----------] 1 test from RacunanjeResenja1
[ RUN      ] RacunanjeResenja1.Determinanta
[       OK ] RacunanjeResenja1.Determinanta (0 ms)
[----------] 1 test from RacunanjeResenja1 (0 ms total)

[----------] 1 test from RacunanjeResenja2
[ RUN      ] RacunanjeResenja2.Determinanta
Pi reps for 2
-------------------
3
[       OK ] RacunanjeResenja2.Determinanta (1 ms)
[----------] 1 test from RacunanjeResenja2 (1 ms total)

[----------] 1 test from RacunanjeResenja3
[ RUN      ] RacunanjeResenja3.Determinanta
Pi reps for 3
-------------------
12
[       OK ] RacunanjeResenja3.Determinanta (1 ms)
[----------] 1 test from RacunanjeResenja3 (1 ms total)

[----------] 1 test from RacunanjeResenja4
[ RUN      ] RacunanjeResenja4.Determinanta
Pi reps for 4
-------------------
39
[       OK ] RacunanjeResenja4.Determinanta (25 ms)
[----------] 1 test from RacunanjeResenja4 (25 ms total)

[----------] 1 test from RacunanjeResenja5
[ RUN      ] RacunanjeResenja5.Determinanta
Pi reps for 5
-------------------
388
[       OK ] RacunanjeResenja5.Determinanta (890 ms)
[----------] 1 test from RacunanjeResenja5 (890 ms total)

[----------] 1 test from RacunanjeResenja6
[ RUN      ] RacunanjeResenja6.Determinanta
Pi reps for 6
-------------------
8102
[       OK ] RacunanjeResenja6.Determinanta (281875 ms)
[----------] 1 test from RacunanjeResenja6 (281875 ms total)



Pi reps rezultati:

[==========] Running 8 tests from 8 test suites.
[----------] Global test environment set-up.
[----------] 1 test from RacunanjeResenja1
[ RUN      ] RacunanjeResenja1.Determinanta
[       OK ] RacunanjeResenja1.Determinanta (0 ms)
[----------] 1 test from RacunanjeResenja1 (0 ms total)

[----------] 1 test from RacunanjeResenja2
[ RUN      ] RacunanjeResenja2.Determinanta
Pi reps for 2
-------------------
7
[       OK ] RacunanjeResenja2.Determinanta (1 ms)
[----------] 1 test from RacunanjeResenja2 (1 ms total)

[----------] 1 test from RacunanjeResenja3
[ RUN      ] RacunanjeResenja3.Determinanta
Pi reps for 3
-------------------
36
[       OK ] RacunanjeResenja3.Determinanta (0 ms)
[----------] 1 test from RacunanjeResenja3 (0 ms total)

[----------] 1 test from RacunanjeResenja4
[ RUN      ] RacunanjeResenja4.Determinanta
Pi reps for 4
-------------------
317
[       OK ] RacunanjeResenja4.Determinanta (5 ms)
[----------] 1 test from RacunanjeResenja4 (5 ms total)

[----------] 1 test from RacunanjeResenja5
[ RUN      ] RacunanjeResenja5.Determinanta
Pi reps for 5
-------------------
5624
[       OK ] RacunanjeResenja5.Determinanta (219 ms)
[----------] 1 test from RacunanjeResenja5 (219 ms total)

[----------] 1 test from RacunanjeResenja6
[ RUN      ] RacunanjeResenja6.Determinanta
Pi reps for 6
-------------------
251610
[       OK ] RacunanjeResenja6.Determinanta (84880 ms)
[----------] 1 test from RacunanjeResenja6 (84880 ms total)
